{
  "projects" : [ {
    "id" : "75cd2fab-d493-48d1-af27-127d71566d56",
    "name" : "prj1",
    "dateBegin" : null,
    "dateEnd" : null
  }, {
    "id" : "0e811f7a-0965-49cb-b206-2237f2c594da",
    "name" : "prj-2",
    "dateBegin" : null,
    "dateEnd" : null
  } ],
  "tasks" : [ {
    "id" : "0fb9a5da-ebe5-4f97-8bc0-0c6e6d0bf8ff",
    "project" : null,
    "name" : "task1",
    "dateBegin" : null,
    "dateEnd" : null
  }, {
    "id" : "4a69ca74-2dd8-46bd-bb6c-2828db140ab9",
    "project" : {
      "id" : "75cd2fab-d493-48d1-af27-127d71566d56",
      "name" : "prj1",
      "dateBegin" : null,
      "dateEnd" : null
    },
    "name" : "New Task",
    "dateBegin" : null,
    "dateEnd" : null
  } ]
}